{
    "Street A": [
        100,
        104,
        105,
        150
    ],
    "Street B": [
        200,
        202,
        203,
        205,
        206,
        208,
        210,
        214
    ],
    "Street C": [
        308,
        314,
        315,
        369,
        396
    ],
    "Unlim 2000": [
        402,
        403,
        404
    ],
    "Unlim 2000+": [
        318,
        411,
        501,
        502,
        503,
        504,
        508,
        513,
        514,
        516,
        518,
        521,
        522
    ]
}