{
    "100": "Vladimir G",
    "104": "Marek Kaljend",
    "105": "Fredi",
    "150": "Maxim",
    "200": "Slava Kard",
    "202": "Siim \u00d5isma",
    "203": "Kaspar J\u00e4rve",
    "205": "Kermo Vahej\u00f5e",
    "206": "Peeter L",
    "208": "Martti Hoop",
    "210": "Kaino Traumann",
    "214": "Sander Roosma",
    "308": "Karl Leinus",
    "314": "Alan Ibrus",
    "315": "Ren\u00e9 O.",
    "318": "Tanel Adamson",
    "369": "Toivo Voodma",
    "396": "M\u00e4rt Rosenfeldt",
    "402": "Veli Rajasaar",
    "403": "Mihkel V\u00f5sa",
    "404": "Ats M",
    "411": "Kermo Vahej\u00f5e",
    "501": "T\u00f5nuri Nurmeots",
    "502": "Mihkel Adamson",
    "503": "Martin Adamson",
    "504": "Rain Tedre",
    "508": "Taavi Taremaa",
    "513": "Armin Hakmann",
    "514": "Alar Hakmann",
    "516": "Valdek Juss",
    "518": "Taavi Dederer",
    "521": "Mihhail Nikitin",
    "522": "Reigo Jaakson",
    "length": 33
}