<?xml version="1.0" encoding="utf-8"?>
<!-- Generator: Adobe Illustrator 16.0.0, SVG Export Plug-In . SVG Version: 6.00 Build 0)  -->
<!DOCTYPE svg PUBLIC "-//W3C//DTD SVG 1.1//EN" "http://www.w3.org/Graphics/SVG/1.1/DTD/svg11.dtd">
<svg version="1.1" id="Layer_1" xmlns="http://www.w3.org/2000/svg" xmlns:xlink="http://www.w3.org/1999/xlink" x="0px" y="0px"
 viewBox="0 0 64 64" enable-background="new 0 0 64 64" xml:space="preserve" preserveAspectRatio="none">
<path fill="#C9C9CA" d="M32,0C14.329,0,0.001,14.327,0,32c0.001,17.674,14.329,32,32.001,32c17.675,0,32-14.326,31.999-31.999
	C64.001,14.326,49.676,0,32,0z M31.986,57.371C17.972,57.371,6.613,46.01,6.613,32c0-14.014,11.358-25.373,25.371-25.371
	c14.014-0.001,25.373,11.359,25.373,25.373C57.357,46.012,45.999,57.371,31.986,57.371z"/>
<circle fill="#FFFFFF" cx="31.984" cy="32" r="25.371"/>
<path fill="#47B549" d="M32,0C24.837,0,18.223,2.355,12.89,6.332c0.323,0.405,0.54,0.673,0.584,0.717l3.401,4.567
	c4.221-3.134,9.448-4.988,15.109-4.987c5.877,0,11.287,1.998,15.588,5.352l3.674-4.677c0.029-0.034,0.191-0.231,0.44-0.534
	C46.257,2.528,39.425,0,32,0z"/>
<path fill="#FFFFFF" d="M57.045,14.706c-0.38,0.383-0.761,0.767-1.14,1.153c-0.361-0.496-0.736-0.983-1.122-1.459
	c0.382-0.385,0.762-0.769,1.144-1.153C56.312,13.723,56.686,14.21,57.045,14.706z"/>
<path fill="#FFFFFF" d="M54.783,14.399c-0.38,0.383-0.76,0.768-1.14,1.152c-0.389-0.477-0.789-0.945-1.199-1.398
	c0.383-0.383,0.765-0.767,1.147-1.15C54.002,13.458,54.4,13.924,54.783,14.399z"/>
<path fill="#FFFFFF" d="M52.444,14.153c-0.381,0.382-0.761,0.765-1.144,1.147c-0.413-0.455-0.834-0.901-1.27-1.335
	c0.382-0.381,0.764-0.765,1.147-1.148C51.612,13.251,52.034,13.695,52.444,14.153z"/>
<path fill="#FFFFFF" d="M54.762,17.013c-0.379,0.385-0.757,0.771-1.139,1.156c-0.362-0.499-0.737-0.988-1.125-1.468
	c0.383-0.382,0.763-0.765,1.146-1.149C54.027,16.029,54.402,16.515,54.762,17.013z"/>
<path fill="#FFFFFF" d="M54.737,11.851c-0.384,0.385-0.764,0.768-1.146,1.152c-0.409-0.456-0.834-0.901-1.268-1.335
	c0.385-0.38,0.768-0.762,1.15-1.144C53.906,10.955,54.326,11.398,54.737,11.851z"/>
<path fill="#FFFFFF" d="M52.337,11.668c-0.381,0.385-0.765,0.767-1.146,1.15c-0.435-0.435-0.88-0.857-1.337-1.268
	c0.387-0.382,0.77-0.762,1.152-1.146C51.462,10.816,51.904,11.239,52.337,11.668z"/>
<path fill="none" d="M32,0C14.329,0,0.001,14.327,0,32c0.001,17.674,14.329,32,32.001,32c17.675,0,32-14.326,31.999-31.999
	C64.001,14.326,49.676,0,32,0z M31.986,57.371C17.972,57.371,6.613,46.01,6.613,32c0-14.014,11.358-25.373,25.371-25.371
	c14.014-0.001,25.373,11.359,25.373,25.373C57.357,46.012,45.999,57.371,31.986,57.371z"/>
<path fill="#FFFFFF" d="M21.291,3.858l1.581-0.522c0.388-0.128,0.693-0.122,0.933,0c0.164,0.083,0.292,0.221,0.365,0.441
	c0.118,0.357-0.015,0.635-0.249,0.844c0.415,0,0.723,0.132,0.864,0.56c0.174,0.528-0.151,0.992-0.886,1.235l-1.59,0.525
	L21.291,3.858z M23.066,4.634c0.26-0.086,0.376-0.222,0.313-0.412c-0.056-0.167-0.22-0.22-0.475-0.136L22.35,4.27l0.179,0.542
	L23.066,4.634z M23.575,5.76c0.26-0.085,0.376-0.236,0.314-0.426c-0.056-0.167-0.224-0.234-0.51-0.139l-0.652,0.215l0.188,0.568
	L23.575,5.76z"/>
<path fill="#FFFFFF" d="M24.638,2.804l2.556-0.535l0.157,0.749l-1.684,0.353l0.101,0.481l1.525-0.319l0.145,0.695l-1.525,0.319
	l0.105,0.504l1.707-0.357l0.157,0.749l-2.579,0.54L24.638,2.804z"/>
<path fill="#FFFFFF" d="M27.884,4.949l0.44-0.644c0.343,0.222,0.712,0.321,1.085,0.285c0.24-0.023,0.361-0.119,0.347-0.267
	c-0.013-0.134-0.126-0.197-0.575-0.256c-0.703-0.089-1.253-0.231-1.319-0.905c-0.059-0.6,0.374-1.081,1.149-1.157
	c0.549-0.054,0.993,0.052,1.372,0.299L29.998,2.98c-0.316-0.179-0.65-0.258-0.936-0.229c-0.217,0.021-0.314,0.124-0.302,0.249
	c0.015,0.147,0.132,0.201,0.589,0.259c0.759,0.089,1.244,0.283,1.304,0.897c0.065,0.66-0.418,1.104-1.203,1.18
	C28.878,5.392,28.316,5.265,27.884,4.949z"/>
<path fill="#FFFFFF" d="M31.746,2.697L30.772,2.69l0.005-0.789l2.848,0.021L33.62,2.71l-0.975-0.007l-0.017,2.458l-0.9-0.006
	L31.746,2.697z"/>
<path fill="#FFFFFF" d="M35.552,2.103l0.889,0.141l-0.385,2.427l1.553,0.246l-0.124,0.778l-2.44-0.387L35.552,2.103z"/>
<path fill="#FFFFFF" d="M39.654,2.881l0.835,0.233l0.453,3.521l-0.93-0.259l-0.071-0.622l-1.206-0.336l-0.38,0.496l-0.911-0.254
	L39.654,2.881z M39.879,5.009l-0.101-0.986l-0.601,0.791L39.879,5.009z"/>
<path fill="#FFFFFF" d="M42.299,3.71l1.286,0.531c0.759,0.313,1.086,0.905,0.809,1.578c-0.292,0.707-0.99,0.855-1.736,0.547
	l-0.411-0.169l-0.354,0.857L41.061,6.71L42.299,3.71z M42.909,5.708c0.296,0.122,0.539,0.042,0.641-0.202
	c0.105-0.257-0.018-0.469-0.317-0.593l-0.391-0.161l-0.327,0.792L42.909,5.708z"/>
<path fill="#FFFFFF" d="M26.083,60.721l1.348-0.723c0.339-0.18,0.474-0.316,0.505-0.51c0.033-0.201-0.089-0.348-0.304-0.383
	c-0.215-0.033-0.405,0.062-0.703,0.311l-0.519-0.598c0.415-0.387,0.793-0.576,1.416-0.475c0.7,0.113,1.114,0.607,1.015,1.221
	c-0.083,0.512-0.387,0.74-0.923,1.002l-0.611,0.295l1.323,0.215l-0.117,0.723l-2.536-0.41L26.083,60.721z"/>
<path fill="#FFFFFF" d="M29.127,60.246c0.045-0.916,0.667-1.656,1.589-1.609c0.921,0.045,1.458,0.834,1.412,1.76
	c-0.046,0.916-0.663,1.656-1.589,1.611C29.613,61.961,29.081,61.174,29.127,60.246z M31.225,60.352
	c0.026-0.514-0.201-0.902-0.558-0.92s-0.611,0.332-0.637,0.859c-0.026,0.52,0.197,0.902,0.558,0.92
	C30.949,61.229,31.199,60.875,31.225,60.352z"/>
<path fill="#FFFFFF" d="M32.481,61.326l1.158-0.998c0.291-0.25,0.393-0.414,0.381-0.609c-0.012-0.203-0.163-0.318-0.381-0.307
	c-0.217,0.014-0.381,0.148-0.618,0.455L32.384,59.4c0.32-0.471,0.647-0.736,1.277-0.775c0.709-0.041,1.22,0.35,1.258,0.971
	c0.031,0.52-0.217,0.809-0.682,1.18l-0.532,0.422l1.338-0.08l0.044,0.73l-2.565,0.156L32.481,61.326z"/>
<path fill="#FFFFFF" d="M35.352,60.199c-0.157-0.906,0.287-1.764,1.196-1.922s1.606,0.494,1.765,1.408
	c0.157,0.904-0.282,1.762-1.196,1.92C36.202,61.766,35.51,61.113,35.352,60.199z M37.422,59.84
	c-0.088-0.508-0.395-0.836-0.747-0.775c-0.352,0.062-0.522,0.459-0.433,0.98c0.089,0.512,0.39,0.836,0.747,0.773
	C37.346,60.756,37.511,60.355,37.422,59.84z"/>
<path fill="#FFFFFF" d="M53.282,8.104c-0.379,0.378-0.759,0.755-1.141,1.135c0.455,0.409,0.899,0.828,1.332,1.26
	c0.38-0.38,0.762-0.759,1.142-1.141C54.184,8.927,53.738,8.51,53.282,8.104z"/>
<path fill="#FFFFFF" d="M57.062,12.101c-0.241-0.304-0.488-0.603-0.74-0.897c-0.146-0.168-0.291-0.337-0.44-0.503
	c-0.38,0.385-0.764,0.767-1.144,1.149c0.408,0.456,0.803,0.921,1.189,1.396C56.306,12.866,56.684,12.483,57.062,12.101z"/>
<path fill="#FFFFFF" d="M49.934,14.068c0.034-0.034,0.068-0.069,0.104-0.103c-0.434-0.434-0.879-0.859-1.336-1.269
	c-0.039,0.039-0.078,0.078-0.116,0.116C49.05,13.215,49.499,13.634,49.934,14.068z"/>
<path fill="#FFFFFF" d="M51.186,15.416c0.403,0.466,0.789,0.947,1.157,1.442c0.052-0.052,0.104-0.104,0.155-0.157
	c-0.387-0.476-0.786-0.944-1.197-1.4C51.263,15.339,51.224,15.377,51.186,15.416z"/>
<path fill="#FFFFFF" d="M50.749,8.049c-0.135,0.133-0.269,0.266-0.403,0.399l-0.648,0.826c0.439,0.358,0.873,0.728,1.296,1.108
	c0.382-0.381,0.766-0.764,1.148-1.144C51.688,8.832,51.223,8.434,50.749,8.049z"/>
<path fill="#FFFFFF" d="M47.687,11.834c0.338,0.281,0.672,0.566,0.999,0.86c0.383-0.381,0.765-0.764,1.148-1.145
	c-0.375-0.338-0.759-0.666-1.148-0.988L47.687,11.834z"/>
</svg>
