{
	"race": "Best Lap",
	"place": "Elva",
	"track": "Kulbilohu Krossirada",
	"date": "2022-08-20",
	"rules": {
		"rounds": 3,
		"laps": 4,
		"wins": "bestlap"
	},
	"classes": ["Street A", "Street B", "Street C", "Unlim 2000", "Unlim 2000+"],
	"points": [10, 8, 6, 5, 4, 3, 2, 1]
}