[
    {
        "100": "00:58,92",
        "101": "01:00,14",
        "102": "00:54,66",
        "104": "00:53,87",
        "105": "01:03,04",
        "106": "00:59,57",
        "107": "01:02,04",
        "108": "00:58,21",
        "109": "01:02,32",
        "110": "01:01,68",
        "111": "00:59,75",
        "112": "00:55,96",
        "113": "00:56,64",
        "200": "00:52,94",
        "201": "00:55,65",
        "202": "00:51,58",
        "205": "00:54,21",
        "206": "00:53,37",
        "222": "00:53,67",
        "302": "00:52,01",
        "303": "00:52,87",
        "306": "00:53,69",
        "369": "00:54,28",
        "396": "00:55,14",
        "403": "00:51,89",
        "408": "00:52,31",
        "409": "00:53,30",
        "410": "00:53,04",
        "412": "00:54,30",
        "413": "00:58,60",
        "501": "00:49,27",
        "502": "00:52,66",
        "505": "00:53,79",
        "506": "00:51,85",
        "507": "00:52,18",
        "508": "00:54,35",
        "509": "00:55,20",
        "510": "00:52,92",
        "555": "00:50,76"
    },
    {
        "100": "01:10,88",
        "101": "00:59,33",
        "102": "00:54,17",
        "104": "00:53,88",
        "105": "01:14,30",
        "106": "01:10,41",
        "107": "01:14,26",
        "108": "01:12,05",
        "109": "01:13,45",
        "110": "01:07,54",
        "111": "01:09,19",
        "112": "00:57,11",
        "113": "01:04,23",
        "200": "01:03,90",
        "201": "00:56,16",
        "202": "00:51,39",
        "205": "00:53,70",
        "206": "00:53,82",
        "222": "01:05,08",
        "302": "00:51,85",
        "303": "00:52,90",
        "306": "00:53,48",
        "369": "00:55,01",
        "396": "00:55,56",
        "403": "00:52,14",
        "405": "00:53,13",
        "408": "00:52,10",
        "410": "00:53,76",
        "412": "00:54,92",
        "413": "01:07,04",
        "501": "00:49,25",
        "502": "00:52,63",
        "505": "00:53,31",
        "506": "00:51,70",
        "507": "00:52,73",
        "508": "00:54,16",
        "509": "00:54,86",
        "510": "00:53,67",
        "555": "00:55,91"
    },
    {
        "100": "00:59,47",
        "104": "00:53,68",
        "105": "01:02,43",
        "106": "00:58,14",
        "108": "00:59,14",
        "109": "01:01,00",
        "110": "01:01,10",
        "111": "00:58,98",
        "113": "00:56,34",
        "200": "00:53,09",
        "201": "00:55,76",
        "202": "01:02,93",
        "205": "00:53,71",
        "222": "00:53,37",
        "303": "00:54,01",
        "306": "00:54,46",
        "369": "00:53,82",
        "396": "00:55,50",
        "403": "00:58,79",
        "405": "00:58,40",
        "408": "00:57,75",
        "409": "01:02,18",
        "410": "00:55,29",
        "413": "00:58,01",
        "501": "00:55,08",
        "502": "01:01,03",
        "505": "00:54,23",
        "506": "00:59,96",
        "507": "00:59,73",
        "509": "00:55,82",
        "510": "00:57,65",
        "555": "00:50,80"
    }
]