{
    "track": [
        "555",
        "222",
        "100"
    ],
    "ready": [],
    "q": [],
    "halt": [],
    "out": [
        "506",
        "333",
        "314",
        "316",
        "301",
        "302",
        "403",
        "303",
        "409",
        "212",
        "315",
        "523",
        "405",
        "396",
        "512",
        "509",
        "501",
        "505",
        "104",
        "102",
        "507",
        "204",
        "113",
        "417",
        "510",
        "213",
        "369",
        "504",
        "503",
        "306",
        "408",
        "522",
        "521"
    ]
}