{
    "100": {
        "paid": "1",
        "checked": "1",
        "active": "1",
        "grouped": ""
    },
    "102": {
        "paid": "1",
        "checked": "1",
        "active": "1",
        "grouped": ""
    },
    "104": {
        "paid": "1",
        "checked": "1",
        "active": "1",
        "grouped": ""
    },
    "113": {
        "paid": "1",
        "checked": "1",
        "active": "1",
        "grouped": ""
    },
    "204": {
        "paid": "1",
        "checked": "1",
        "active": "1",
        "grouped": ""
    },
    "212": {
        "paid": "1",
        "checked": "1",
        "active": "1",
        "grouped": ""
    },
    "213": {
        "paid": "1",
        "checked": "1",
        "active": "1",
        "grouped": ""
    },
    "222": {
        "paid": "1",
        "checked": "1",
        "active": "1",
        "grouped": ""
    },
    "301": {
        "paid": "1",
        "checked": "1",
        "active": "1",
        "grouped": ""
    },
    "302": {
        "paid": "1",
        "checked": "1",
        "active": "1",
        "grouped": ""
    },
    "303": {
        "paid": "1",
        "checked": "1",
        "active": "1",
        "grouped": ""
    },
    "306": {
        "paid": "1",
        "checked": "1",
        "active": "1",
        "grouped": ""
    },
    "314": {
        "paid": "1",
        "checked": "1",
        "active": "1",
        "grouped": ""
    },
    "315": {
        "paid": "1",
        "checked": "1",
        "active": "1",
        "grouped": ""
    },
    "316": {
        "paid": "1",
        "checked": "1",
        "active": "1",
        "grouped": ""
    },
    "333": {
        "paid": "1",
        "checked": "1",
        "active": "1",
        "grouped": ""
    },
    "369": {
        "paid": "1",
        "checked": "1",
        "active": "1",
        "grouped": ""
    },
    "396": {
        "paid": "1",
        "checked": "1",
        "active": "1",
        "grouped": ""
    },
    "403": {
        "paid": "1",
        "checked": "1",
        "active": "1",
        "grouped": ""
    },
    "405": {
        "paid": "1",
        "checked": "1",
        "active": "1",
        "grouped": ""
    },
    "408": {
        "paid": "1",
        "checked": "1",
        "active": "1",
        "grouped": ""
    },
    "409": {
        "paid": "1",
        "checked": "1",
        "active": "1",
        "grouped": ""
    },
    "417": {
        "paid": "1",
        "checked": "1",
        "active": "1",
        "grouped": ""
    },
    "501": {
        "paid": "1",
        "checked": "1",
        "active": "1",
        "grouped": ""
    },
    "503": {
        "paid": "1",
        "checked": "1",
        "active": "1",
        "grouped": ""
    },
    "504": {
        "paid": "1",
        "checked": "1",
        "active": "1",
        "grouped": ""
    },
    "505": {
        "paid": "1",
        "checked": "1",
        "active": "1",
        "grouped": ""
    },
    "506": {
        "paid": "1",
        "checked": "1",
        "active": "1",
        "grouped": ""
    },
    "507": {
        "paid": "1",
        "checked": "1",
        "active": "1",
        "grouped": ""
    },
    "509": {
        "paid": "1",
        "checked": "1",
        "active": "1",
        "grouped": ""
    },
    "510": {
        "paid": "1",
        "checked": "1",
        "active": "1",
        "grouped": ""
    },
    "512": {
        "paid": "1",
        "checked": "1",
        "active": "1",
        "grouped": ""
    },
    "521": {
        "paid": "1",
        "checked": "1",
        "active": "",
        "grouped": ""
    },
    "522": {
        "paid": "1",
        "checked": "1",
        "active": "",
        "grouped": ""
    },
    "523": {
        "paid": "1",
        "checked": "1",
        "active": "1",
        "grouped": ""
    },
    "555": {
        "paid": "1",
        "checked": "1",
        "active": "1",
        "grouped": ""
    }
}