{
    "Street A": [
        126,
        123,
        114,
        103,
        125,
        102,
        108,
        111,
        117
    ],
    "Street B": [
        205,
        206
    ],
    "Street C": [
        310,
        314,
        312,
        313,
        311
    ],
    "Unlim 2000": [
        409,
        406,
        415,
        417,
        408,
        418,
        404,
        412,
        413
    ],
    "Unlim 2000+": [
        501,
        509,
        510,
        504,
        505,
        511,
        512
    ]
}