[
    [
        {
            "103": "01:42,87",
            "108": "01:43,71",
            "117": "01:32,99",
            "118": "01:49,47",
            "119": "01:51,04",
            "120": "01:41,68",
            "126": "01:34,83",
            "127": "01:37,53",
            "128": "01:44,60",
            "205": "01:33,28",
            "206": "01:39,78",
            "208": "01:42,49",
            "209": "01:30,02",
            "312": "01:29,12",
            "314": "01:32,26",
            "315": "01:31,58",
            "316": "01:30,13",
            "317": "01:30,41",
            "318": "01:24,48",
            "319": "01:36,22",
            "321": "01:26,91",
            "404": "01:41,64",
            "406": "01:39,89",
            "408": "01:42,98",
            "409": "01:39,21",
            "410": "01:42,59",
            "413": "01:55,64",
            "415": "01:49,60",
            "420": "01:29,73",
            "421": "01:30,59",
            "501": "01:28,62",
            "503": "01:26,26",
            "504": "01:33,58",
            "505": "01:27,79",
            "513": "01:32,52",
            "514": "01:36,63",
            "515": "01:31,11"
        },
        {
            "108": "01:43,65",
            "117": "02:54,92",
            "119": "01:48,59",
            "120": "01:38,70",
            "126": "02:41,21",
            "127": "01:37,76",
            "128": "01:43,99",
            "205": "01:32,41",
            "206": "01:40,31",
            "209": "01:29,11",
            "312": "01:28,05",
            "314": "01:39,27",
            "315": "01:29,42",
            "316": "01:30,04",
            "317": "01:29,75",
            "318": "01:22,94",
            "319": "01:31,12",
            "321": "01:27,03",
            "404": "01:41,22",
            "406": "01:33,68",
            "408": "01:42,96",
            "409": "01:36,37",
            "410": "01:41,48",
            "415": "01:49,37",
            "420": "01:27,41",
            "421": "01:31,01",
            "501": "01:27,38",
            "503": "01:25,70",
            "504": "01:32,59",
            "505": "01:26,66",
            "513": "01:40,42",
            "514": "01:34,29",
            "515": "01:31,32"
        },
        {
            "108": "01:43,21",
            "117": "01:33,19",
            "119": "01:47,99",
            "120": "01:38,34",
            "126": "01:34,30",
            "127": "01:36,86",
            "128": "01:44,16",
            "205": "01:32,89",
            "206": "01:42,26",
            "209": "01:29,23",
            "312": "01:47,52",
            "314": "01:32,57",
            "315": "01:29,63",
            "317": "01:29,33",
            "318": "01:22,97",
            "319": "01:30,51",
            "321": "01:26,03",
            "404": "01:41,41",
            "406": "01:33,43",
            "408": "01:42,69",
            "409": "01:46,07",
            "410": "01:41,86",
            "415": "01:45,65",
            "420": "01:27,91",
            "421": "01:30,72",
            "501": "01:28,22",
            "503": "01:26,27",
            "504": "01:32,26",
            "505": "01:27,12",
            "513": "01:30,38",
            "514": "01:33,52",
            "515": "01:41,72"
        },
        {
            "108": "01:46,39",
            "117": "01:33,45",
            "119": "01:51,43",
            "120": "01:37,65",
            "126": "01:33,71",
            "127": "01:36,43",
            "128": "01:43,68",
            "205": "01:33,01",
            "206": "01:37,28",
            "209": "01:28,68",
            "312": "01:29,63",
            "314": "01:32,46",
            "315": "01:33,82",
            "317": "01:30,80",
            "318": "01:22,36",
            "319": "01:34,64",
            "321": "01:26,41",
            "404": "01:51,52",
            "406": "01:32,83",
            "408": "01:42,15",
            "409": "01:37,11",
            "410": "01:41,38",
            "415": "01:44,65",
            "420": "01:30,17",
            "421": "01:30,58",
            "503": "01:57,77",
            "504": "01:30,98",
            "505": "01:26,25",
            "513": "01:30,78",
            "514": "01:33,52",
            "515": "01:36,18"
        },
        {
            "108": "01:43,58",
            "117": "01:34,03",
            "120": "01:37,47",
            "126": "01:33,64",
            "127": "01:36,06",
            "128": "01:43,64",
            "205": "01:32,16",
            "206": "01:38,00",
            "209": "02:04,00",
            "312": "01:29,12",
            "314": "01:32,04",
            "315": "01:29,17",
            "317": "01:31,35",
            "318": "01:21,98",
            "319": "01:30,73",
            "321": "01:26,68",
            "404": "01:41,64",
            "406": "01:32,62",
            "409": "01:34,01",
            "410": "01:44,69",
            "415": "01:42,20",
            "420": "01:28,49",
            "421": "01:31,56",
            "504": "01:30,23",
            "513": "01:30,82",
            "514": "01:34,16",
            "515": "01:31,19"
        }
    ],
    [
        {
            "103": "01:42,65",
            "108": "01:43,33",
            "117": "01:34,48",
            "120": "01:40,55",
            "126": "01:34,42",
            "127": "03:15,29",
            "128": "01:44,63",
            "205": "01:33,05",
            "206": "01:56,52",
            "208": "01:41,07",
            "209": "01:30,55",
            "312": "01:33,19",
            "314": "01:33,04",
            "315": "01:30,22",
            "316": "01:29,43",
            "317": "01:35,53",
            "318": "01:22,88",
            "319": "01:34,44",
            "321": "01:28,38",
            "404": "01:42,79",
            "406": "01:34,94",
            "408": "01:44,07",
            "409": "01:37,65",
            "410": "01:41,05",
            "415": "01:55,49",
            "420": "01:29,07",
            "421": "01:31,74",
            "501": "01:29,46",
            "504": "01:31,19",
            "505": "01:29,08",
            "513": "01:34,74",
            "514": "01:34,53",
            "515": "01:30,56"
        },
        {
            "103": "01:43,35",
            "108": "01:43,48",
            "117": "01:32,89",
            "120": "01:38,15",
            "126": "01:34,55",
            "127": "01:38,37",
            "128": "01:43,99",
            "205": "01:32,21",
            "206": "01:37,08",
            "208": "01:39,56",
            "209": "01:28,89",
            "312": "01:28,90",
            "315": "01:30,20",
            "316": "01:29,15",
            "317": "01:29,39",
            "318": "01:23,06",
            "319": "01:37,26",
            "321": "01:28,00",
            "404": "01:42,21",
            "406": "01:32,21",
            "408": "01:42,80",
            "409": "01:36,55",
            "410": "01:41,00",
            "415": "01:44,87",
            "420": "01:31,78",
            "421": "01:30,95",
            "501": "01:27,37",
            "504": "01:30,11",
            "505": "01:27,27",
            "513": "01:31,42",
            "514": "01:32,45",
            "515": "01:30,79"
        },
        {
            "103": "01:43,26",
            "108": "01:42,98",
            "117": "01:33,10",
            "120": "01:36,99",
            "126": "01:33,66",
            "127": "01:38,41",
            "128": "01:44,04",
            "205": "01:31,68",
            "206": "01:38,12",
            "208": "01:35,47",
            "209": "01:28,78",
            "312": "01:28,56",
            "315": "01:29,98",
            "317": "01:29,00",
            "318": "01:22,35",
            "319": "01:31,63",
            "321": "01:27,33",
            "404": "01:42,03",
            "406": "01:31,87",
            "408": "01:42,01",
            "409": "01:34,49",
            "410": "01:40,66",
            "415": "01:43,40",
            "420": "01:28,06",
            "421": "01:30,75",
            "501": "01:26,84",
            "504": "01:29,65",
            "505": "01:27,08",
            "513": "01:30,84",
            "514": "01:32,54",
            "515": "01:31,23"
        },
        {
            "103": "01:41,10",
            "108": "01:43,59",
            "117": "01:33,16",
            "120": "01:36,73",
            "126": "01:32,94",
            "127": "01:36,66",
            "128": "01:43,05",
            "205": "01:32,63",
            "206": "01:36,77",
            "208": "01:35,70",
            "209": "01:28,93",
            "312": "01:35,15",
            "315": "01:29,54",
            "318": "01:22,01",
            "319": "01:30,96",
            "321": "01:27,02",
            "404": "01:42,47",
            "406": "01:31,95",
            "408": "01:41,67",
            "410": "01:39,81",
            "415": "01:42,06",
            "420": "01:28,26",
            "421": "01:30,46",
            "504": "01:29,10",
            "505": "01:26,85",
            "513": "01:37,35",
            "514": "01:31,79",
            "515": "01:30,98"
        },
        {}
    ],
    [
        {
            "103": "01:43,21",
            "108": "01:43,65",
            "117": "01:33,19",
            "120": "01:40,46",
            "126": "01:36,44",
            "127": "01:37,95",
            "128": "01:43,14",
            "205": "01:35,39",
            "206": "01:38,00",
            "208": "01:43,01",
            "312": "01:30,37",
            "314": "01:31,05",
            "315": "01:29,84",
            "318": "01:23,46",
            "404": "01:41,97",
            "406": "01:37,42",
            "408": "01:42,81",
            "409": "01:38,00",
            "410": "01:42,28",
            "415": "01:45,83",
            "420": "01:29,12",
            "421": "01:32,06",
            "501": "01:29,08",
            "504": "01:31,94",
            "505": "01:28,75",
            "513": "01:32,32",
            "514": "01:34,47"
        },
        {
            "103": "01:42,45",
            "108": "01:43,19",
            "117": "01:33,23",
            "120": "01:38,08",
            "126": "01:34,62",
            "127": "01:37,65",
            "128": "01:43,71",
            "205": "01:33,03",
            "206": "01:36,86",
            "208": "01:38,20",
            "312": "01:29,00",
            "314": "01:32,09",
            "315": "01:29,78",
            "318": "01:22,30",
            "404": "01:41,89",
            "406": "01:33,20",
            "408": "01:42,07",
            "409": "01:34,57",
            "410": "01:39,62",
            "415": "01:39,69",
            "420": "01:27,84",
            "421": "01:30,82",
            "501": "01:28,05",
            "504": "01:30,33",
            "505": "01:28,06",
            "513": "01:31,81",
            "514": "01:32,52"
        },
        {
            "103": "01:41,79",
            "108": "01:43,04",
            "117": "01:32,58",
            "120": "01:38,55",
            "126": "01:33,99",
            "127": "01:38,08",
            "128": "01:43,83",
            "205": "01:32,64",
            "206": "01:37,21",
            "208": "01:37,07",
            "312": "01:30,24",
            "314": "01:31,36",
            "318": "01:21,69",
            "404": "01:41,01",
            "406": "01:32,26",
            "408": "01:44,24",
            "409": "01:33,28",
            "410": "01:38,59",
            "415": "01:42,09",
            "420": "01:28,04",
            "421": "01:30,53",
            "501": "01:27,94",
            "504": "01:29,74",
            "505": "01:26,82",
            "513": "01:30,69",
            "514": "01:32,40"
        },
        {
            "103": "01:40,82",
            "108": "01:43,55",
            "117": "01:32,15",
            "120": "01:38,34",
            "126": "01:33,77",
            "127": "01:36,93",
            "128": "01:43,73",
            "205": "01:31,72",
            "206": "01:36,87",
            "208": "01:36,79",
            "312": "01:28,94",
            "314": "01:31,27",
            "318": "01:21,55",
            "404": "01:41,31",
            "406": "01:32,50",
            "408": "01:42,43",
            "409": "01:33,59",
            "410": "01:51,49",
            "420": "01:27,54",
            "421": "01:30,46",
            "501": "01:27,79",
            "504": "01:29,58",
            "505": "01:27,98",
            "513": "01:30,50",
            "514": "01:32,42"
        },
        {}
    ]
]