{
    "Street A": [
        100,
        104,
        150
    ],
    "Street B": [
        200,
        201,
        202,
        203,
        204,
        205,
        206,
        207,
        208,
        209,
        210
    ],
    "Street C": [
        300,
        301,
        303,
        304,
        305,
        306,
        307,
        308,
        309,
        310,
        311,
        312
    ],
    "Unlim 2000": [
        401,
        402,
        403,
        404,
        405,
        406,
        407
    ],
    "Unlim 2000+": [
        501,
        502,
        503,
        505,
        506,
        507,
        508,
        509
    ]
}