[
    {
        "number": [
            31
        ],
        "mark": "VW",
        "model": "GTI",
        "type": "Stock",
        "engine": {
            "volume": 2000,
            "turbo": true
        },
        "wheels": {
            "tyres": "\u2265180"
        },
        "year": 2009,
        "color": "red"
    },
    {
        "number": [
            51
        ],
        "mark": "BMW",
        "model": "328i",
        "type": "Track",
        "engine": {
            "volume": 2800,
            "turbo": false
        },
        "wheels": {
            "tyres": "<180"
        },
        "year": 1995,
        "color": "snow"
    },
    {
        "number": [
            12
        ],
        "mark": "Honda",
        "model": "Integra",
        "type": "Stock",
        "engine": {
            "volume": 2157,
            "turbo": false
        },
        "wheels": {
            "tyres": "\u2265180"
        },
        "year": 1998,
        "color": "black"
    },
    {
        "number": [
            60
        ],
        "mark": "Mazda",
        "model": "MX-5",
        "type": "Stock",
        "engine": {
            "volume": 1800,
            "turbo": true
        },
        "wheels": {
            "tyres": "<180"
        },
        "year": 1994,
        "color": ""
    },
    {
        "number": [
            17
        ],
        "mark": "BMW",
        "model": "E46",
        "type": "Stock",
        "engine": {
            "volume": 1895,
            "turbo": false
        },
        "wheels": {
            "tyres": "\u2265180"
        },
        "year": 1999,
        "color": "silver"
    },
    {
        "number": [
            30
        ],
        "mark": "Audi",
        "model": "RS3",
        "type": "Stock",
        "engine": {
            "volume": 2500,
            "turbo": true
        },
        "wheels": {
            "tyres": "\u2265180"
        },
        "year": 2018,
        "color": "green"
    },
    {
        "number": [
            76
        ],
        "mark": "Honda",
        "model": "Civic",
        "type": "Track",
        "engine": {
            "volume": 1500,
            "turbo": false
        },
        "wheels": {
            "tyres": "<180"
        },
        "year": 1994,
        "color": ""
    },
    {
        "number": [
            1
        ],
        "mark": "Audi",
        "model": "A3",
        "type": "Stock",
        "engine": {
            "volume": 1600,
            "turbo": false
        },
        "wheels": {
            "tyres": "\u2265180"
        },
        "year": 1998,
        "color": "darkred"
    },
    {
        "number": [
            78
        ],
        "mark": "Opel",
        "model": "Astra F",
        "type": "Track",
        "engine": {
            "volume": 2000,
            "turbo": false
        },
        "wheels": {
            "tyres": "<180"
        },
        "year": 1997,
        "color": ""
    },
    {
        "number": [
            29
        ],
        "mark": "Renault",
        "model": "Clio",
        "type": "Stock",
        "engine": {
            "volume": 2000,
            "turbo": false
        },
        "wheels": {
            "tyres": "<180"
        },
        "year": 2000,
        "color": "limegreen"
    },
    {
        "number": [
            38
        ],
        "mark": "bmw",
        "model": "m3",
        "type": "Stock",
        "engine": {
            "volume": 4000,
            "turbo": false
        },
        "wheels": {
            "tyres": "\u2265180"
        },
        "year": 2009,
        "color": ""
    },
    {
        "number": [
            7
        ],
        "mark": "Honda",
        "model": "INTEGRA",
        "type": "Track",
        "engine": {
            "volume": 1595,
            "turbo": true
        },
        "wheels": {
            "tyres": "<180"
        },
        "year": 2000,
        "color": ""
    },
    {
        "number": [
            14
        ],
        "mark": "Alfa Romeo",
        "model": "147",
        "type": "Stock",
        "engine": {
            "volume": 1970,
            "turbo": false
        },
        "wheels": {
            "tyres": "<180"
        },
        "year": 2001,
        "color": "silver"
    },
    {
        "number": [
            69
        ],
        "mark": "Volkswagen",
        "model": "Golf GTI",
        "type": "Track",
        "engine": {
            "volume": 1984,
            "turbo": false
        },
        "wheels": {
            "tyres": "\u2265180"
        },
        "year": 1987,
        "color": ""
    },
    {
        "number": [
            32
        ],
        "mark": "Maserati",
        "model": "Coupe",
        "type": "Stock",
        "engine": {
            "volume": 4200,
            "turbo": false
        },
        "wheels": {
            "tyres": "\u2265180"
        },
        "year": 2005,
        "color": ""
    },
    {
        "number": [
            70
        ],
        "mark": "BMW",
        "model": "E36",
        "type": "Track",
        "engine": {
            "volume": 200,
            "turbo": false
        },
        "wheels": {
            "tyres": "<180"
        },
        "year": 1992,
        "color": ""
    },
    {
        "number": [
            71
        ],
        "mark": "BMW",
        "model": "E36",
        "type": "Track",
        "engine": {
            "volume": 1998,
            "turbo": false
        },
        "wheels": {
            "tyres": "<180"
        },
        "year": 1994,
        "color": ""
    },
    {
        "number": [
            37
        ],
        "mark": "Audi",
        "model": "S3",
        "type": "Stock",
        "engine": {
            "volume": 2000,
            "turbo": true
        },
        "wheels": {
            "tyres": "\u2265180"
        },
        "year": 2008,
        "color": ""
    },
    {
        "number": [
            72
        ],
        "mark": "Honda",
        "model": "Civic ",
        "type": "Track",
        "engine": {
            "volume": 1800,
            "turbo": false
        },
        "wheels": {
            "tyres": "<180"
        },
        "year": 1994,
        "color": ""
    },
    {
        "number": [
            27
        ],
        "mark": "Peugeot",
        "model": "308",
        "type": "Stock",
        "engine": {
            "volume": 1598,
            "turbo": true
        },
        "wheels": {
            "tyres": "\u2265180"
        },
        "year": 2020,
        "color": ""
    },
    {
        "number": [
            28
        ],
        "mark": "Opel",
        "model": "Astra F",
        "type": "Track",
        "engine": {
            "volume": 2000,
            "turbo": false
        },
        "wheels": {
            "tyres": "<180"
        },
        "year": 1997,
        "color": ""
    },
    {
        "number": [
            3
        ],
        "mark": "Honda",
        "model": "Civic",
        "type": "Stock",
        "engine": {
            "volume": 1500,
            "turbo": false
        },
        "wheels": {
            "tyres": "\u2265180"
        },
        "year": 1992,
        "color": ""
    },
    {
        "number": [
            74
        ],
        "mark": "Lamborghini",
        "model": "Gallardo",
        "type": "Stock",
        "engine": {
            "volume": 5000,
            "turbo": false
        },
        "wheels": {
            "tyres": "<180"
        },
        "year": 2008,
        "color": ""
    },
    {
        "number": [
            75
        ],
        "mark": "Lexus",
        "model": "Isf",
        "type": "Stock",
        "engine": {
            "volume": 5000,
            "turbo": true
        },
        "wheels": {
            "tyres": "<180"
        },
        "year": 2012,
        "color": ""
    },
    {
        "number": [
            68
        ],
        "mark": "SEAT",
        "model": "LEON ST CUPRA",
        "type": "Stock",
        "engine": {
            "volume": 1984,
            "turbo": true
        },
        "wheels": {
            "tyres": "\u2265180"
        },
        "year": 2019,
        "color": ""
    }
]