{
    "race": "Best Lap",
    "place": "Audru",
    "track": "auto24ring",
    "date": "2020-09-12",
    "rules": {
        "rounds": 3,
        "laps": 4,
        "wins": "bestlap",
        "minimum": 2
    },
    "classes": {
        "Street A": [
            {
                "driver": "Rene",
                "car": {
                    "number": [
                        3
                    ],
                    "mark": "Honda",
                    "model": "Civic",
                    "type": "Stock",
                    "engine": {
                        "volume": 1500,
                        "turbo": false
                    },
                    "wheels": {
                        "tyres": "≥180"
                    },
                    "year": 1992,
                    "color": ""
                },
                "rounds": [
                    "01:41,31",
                    "01:42,29",
                    "01:42,04"
                ],
                "bestlap": "01:41,31",
                "laps": [
                    [
                        "01:41,31",
                        "01:42,31",
                        "01:41,89",
                        "01:42,48"
                    ],
                    [
                        "01:42,59",
                        "01:42,29",
                        "01:58,03"
                    ],
                    [
                        "01:42,44",
                        "01:42,36",
                        "01:42,65",
                        "01:42,04"
                    ]
                ],
                "number": 3,
                "points": 10,
                "place": 1
            },
            {
                "driver": "Max Max",
                "car": {
                    "number": [
                        1
                    ],
                    "mark": "Audi",
                    "model": "A3",
                    "type": "Stock",
                    "engine": {
                        "volume": 1600,
                        "turbo": false
                    },
                    "wheels": {
                        "tyres": "≥180"
                    },
                    "year": 1998,
                    "color": "darkred"
                },
                "rounds": [
                    "01:45,41",
                    "01:45,56",
                    "01:45,56"
                ],
                "bestlap": "01:45,41",
                "laps": [
                    [
                        "01:47,44",
                        "01:45,67",
                        "01:45,41",
                        "01:45,78"
                    ],
                    [
                        "01:46,89",
                        "01:46,57",
                        "01:45,56"
                    ],
                    [
                        "01:47,03",
                        "01:47,05",
                        "01:45,56",
                        "01:45,73"
                    ]
                ],
                "number": 1,
                "points": 8,
                "place": 2
            }
        ],
        "Street B": [
            {
                "driver": "Eero Sillandi",
                "car": {
                    "number": [
                        12
                    ],
                    "mark": "Honda",
                    "model": "Integra",
                    "type": "Stock",
                    "engine": {
                        "volume": 2157,
                        "turbo": false
                    },
                    "wheels": {
                        "tyres": "≥180"
                    },
                    "year": 1998,
                    "color": "black"
                },
                "rounds": [
                    "01:31,95",
                    "01:32,11"
                ],
                "bestlap": "01:31,95",
                "laps": [
                    [
                        "01:32,42",
                        "01:34,38",
                        "01:57,48",
                        "01:31,95"
                    ],
                    [
                        "01:32,64",
                        "01:32,11",
                        "02:12,75"
                    ]
                ],
                "number": 12,
                "points": 10,
                "place": 1
            },
            {
                "driver": "RISTO ARTEL",
                "car": {
                    "number": [
                        14
                    ],
                    "mark": "Alfa Romeo",
                    "model": "147",
                    "type": "Stock",
                    "engine": {
                        "volume": 1970,
                        "turbo": false
                    },
                    "wheels": {
                        "tyres": "<180"
                    },
                    "year": 2001,
                    "color": "silver"
                },
                "rounds": [
                    "01:47,34",
                    "01:47,15",
                    "01:47,57"
                ],
                "bestlap": "01:47,15",
                "laps": [
                    [
                        "01:48,23",
                        "01:48,46",
                        "01:47,34",
                        "01:47,54"
                    ],
                    [
                        "01:48,20",
                        "01:48,00",
                        "01:47,35",
                        "01:47,15"
                    ],
                    [
                        "01:48,14",
                        "01:47,97",
                        "01:47,57",
                        "01:48,51"
                    ]
                ],
                "number": 14,
                "points": 8,
                "place": 2
            },
            {
                "driver": "Aleksandr Razdolski",
                "car": {
                    "number": [
                        17
                    ],
                    "mark": "BMW",
                    "model": "E46",
                    "type": "Stock",
                    "engine": {
                        "volume": 1895,
                        "turbo": false
                    },
                    "wheels": {
                        "tyres": "≥180"
                    },
                    "year": 1999,
                    "color": "silver"
                },
                "rounds": [
                    "01:50,75",
                    "01:50,09",
                    "01:50,46"
                ],
                "bestlap": "01:50,09",
                "laps": [
                    [
                        "01:51,80",
                        "01:50,75",
                        "01:50,91",
                        "01:52,74"
                    ],
                    [
                        "01:54,23",
                        "01:50,85",
                        "01:51,09",
                        "01:50,09"
                    ],
                    [
                        "01:52,80",
                        "01:50,46",
                        "01:53,34",
                        "01:51,24"
                    ]
                ],
                "number": 17,
                "points": 6,
                "place": 3
            }
        ],
        "Street C": [
            {
                "driver": "Nikita Kozlovski",
                "car": {
                    "number": [
                        27
                    ],
                    "mark": "Peugeot",
                    "model": "308",
                    "type": "Stock",
                    "engine": {
                        "volume": 1598,
                        "turbo": true
                    },
                    "wheels": {
                        "tyres": "≥180"
                    },
                    "year": 2020,
                    "color": ""
                },
                "rounds": [
                    "01:34,08",
                    "01:33,49",
                    "01:33,83"
                ],
                "bestlap": "01:33,49",
                "laps": [
                    [
                        "01:35,90",
                        "01:34,08",
                        "01:35,49",
                        "02:12,72"
                    ],
                    [
                        "01:35,22",
                        "01:33,49",
                        "01:33,76",
                        "01:43,48"
                    ],
                    [
                        "01:35,21",
                        "01:33,83",
                        "01:35,01",
                        "01:36,73"
                    ]
                ],
                "number": 27,
                "points": 10,
                "place": 1
            }
        ],
        "Street D": [
            {
                "driver": "Argo",
                "car": {
                    "number": [
                        74
                    ],
                    "mark": "Lamborghini",
                    "model": "Gallardo",
                    "type": "Stock",
                    "engine": {
                        "volume": 5000,
                        "turbo": false
                    },
                    "wheels": {
                        "tyres": "<180"
                    },
                    "year": 2008,
                    "color": ""
                },
                "rounds": [
                    "01:29,48",
                    "01:28,53",
                    "01:28,07"
                ],
                "bestlap": "01:28,07",
                "laps": [
                    [
                        "01:29,48",
                        "01:30,34",
                        "01:30,27",
                        "01:29,80"
                    ],
                    [
                        "01:29,87",
                        "01:28,77",
                        "01:28,53",
                        "01:28,91"
                    ],
                    [
                        "01:30,06",
                        "01:28,18",
                        "01:28,59",
                        "01:28,07"
                    ]
                ],
                "number": 74,
                "points": 10,
                "place": 1
            },
            {
                "driver": "aleksandr",
                "car": {
                    "number": [
                        38
                    ],
                    "mark": "bmw",
                    "model": "m3",
                    "type": "Stock",
                    "engine": {
                        "volume": 4000,
                        "turbo": false
                    },
                    "wheels": {
                        "tyres": "≥180"
                    },
                    "year": 2009,
                    "color": ""
                },
                "rounds": [
                    "01:31,52",
                    "01:31,65",
                    "01:32,04"
                ],
                "bestlap": "01:31,52",
                "laps": [
                    [
                        "01:32,68",
                        "01:31,52",
                        "01:31,65",
                        "01:31,92"
                    ],
                    [
                        "01:32,77",
                        "01:31,65",
                        "01:31,85"
                    ],
                    [
                        "01:33,24",
                        "01:32,04",
                        "01:32,10",
                        "01:32,10"
                    ]
                ],
                "number": 38,
                "points": 8,
                "place": 2
            },
            {
                "driver": "Aleksandr Priidemann",
                "car": {
                    "number": [
                        30
                    ],
                    "mark": "Audi",
                    "model": "RS3",
                    "type": "Stock",
                    "engine": {
                        "volume": 2500,
                        "turbo": true
                    },
                    "wheels": {
                        "tyres": "≥180"
                    },
                    "year": 2018,
                    "color": "green"
                },
                "rounds": [
                    "01:31,94",
                    "01:32,45",
                    "01:31,42"
                ],
                "bestlap": "01:31,42",
                "laps": [
                    [
                        "01:32,19",
                        "01:32,36",
                        "01:32,93",
                        "01:31,94"
                    ],
                    [
                        "01:33,56",
                        "01:32,45",
                        "01:32,82"
                    ],
                    [
                        "01:33,18",
                        "01:31,98",
                        "01:31,42",
                        "01:32,18"
                    ]
                ],
                "number": 30,
                "points": 6,
                "place": 3
            },
            {
                "driver": "AWD",
                "car": {
                    "number": [
                        37
                    ],
                    "mark": "Audi",
                    "model": "S3",
                    "type": "Stock",
                    "engine": {
                        "volume": 2000,
                        "turbo": true
                    },
                    "wheels": {
                        "tyres": "≥180"
                    },
                    "year": 2008,
                    "color": ""
                },
                "rounds": [
                    "01:33,76",
                    "01:33,24",
                    "01:33,69"
                ],
                "bestlap": "01:33,24",
                "laps": [
                    [
                        "01:34,31",
                        "01:33,85",
                        "01:33,76",
                        "01:34,68"
                    ],
                    [
                        "01:33,24",
                        "01:33,32",
                        "01:33,73",
                        "01:33,62"
                    ],
                    [
                        "01:33,78",
                        "01:34,16",
                        "01:33,69",
                        "01:34,44"
                    ]
                ],
                "number": 37,
                "points": 5,
                "place": 4
            },
            {
                "driver": "Erki Hindpere",
                "car": {
                    "number": [
                        32
                    ],
                    "mark": "Maserati",
                    "model": "Coupe",
                    "type": "Stock",
                    "engine": {
                        "volume": 4200,
                        "turbo": false
                    },
                    "wheels": {
                        "tyres": "≥180"
                    },
                    "year": 2005,
                    "color": ""
                },
                "rounds": [
                    "01:35,80",
                    "01:33,00",
                    "01:34,89"
                ],
                "bestlap": "01:33,00",
                "laps": [
                    [
                        "01:36,52",
                        "01:36,13",
                        "01:35,80",
                        "01:36,15"
                    ],
                    [
                        "01:35,82",
                        "01:33,28",
                        "01:33,00"
                    ],
                    [
                        "01:35,08",
                        "01:36,08",
                        "01:34,90",
                        "01:34,89"
                    ]
                ],
                "number": 32,
                "points": 4,
                "place": 5
            },
            {
                "driver": "Aleksandr.",
                "car": {
                    "number": [
                        68
                    ],
                    "mark": "SEAT",
                    "model": "LEON ST CUPRA",
                    "type": "Stock",
                    "engine": {
                        "volume": 1984,
                        "turbo": true
                    },
                    "wheels": {
                        "tyres": "≥180"
                    },
                    "year": 2019,
                    "color": ""
                },
                "rounds": [
                    "01:37,17",
                    "01:37,02",
                    "01:36,74"
                ],
                "bestlap": "01:36,74",
                "laps": [
                    [
                        "01:37,80",
                        "01:38,27",
                        "01:40,53",
                        "01:37,17"
                    ],
                    [
                        "01:38,53",
                        "01:37,83",
                        "01:38,26",
                        "01:37,02"
                    ],
                    [
                        "01:37,95",
                        "01:37,22",
                        "01:36,74",
                        "01:36,94"
                    ]
                ],
                "number": 68,
                "points": 3,
                "place": 6
            },
            {
                "driver": "Sila Toka",
                "car": {
                    "number": [
                        31
                    ],
                    "mark": "VW",
                    "model": "GTI",
                    "type": "Stock",
                    "engine": {
                        "volume": 2000,
                        "turbo": true
                    },
                    "wheels": {
                        "tyres": "≥180"
                    },
                    "year": 2009,
                    "color": "red"
                },
                "rounds": [
                    "01:40,45",
                    "01:39,41",
                    "01:40,43"
                ],
                "bestlap": "01:39,41",
                "laps": [
                    [
                        "01:40,93",
                        "01:40,45",
                        "01:42,02",
                        "01:41,42"
                    ],
                    [
                        "01:39,41",
                        "01:39,82",
                        "01:43,14"
                    ],
                    [
                        "01:40,95",
                        "01:43,03",
                        "01:40,43",
                        "01:41,07"
                    ]
                ],
                "number": 31,
                "points": 2,
                "place": 7
            }
        ],
        "Unlim 2000": [
            {
                "driver": "Taavi Taremaa ",
                "car": {
                    "number": [
                        72
                    ],
                    "mark": "Honda",
                    "model": "Civic ",
                    "type": "Track",
                    "engine": {
                        "volume": 1800,
                        "turbo": false
                    },
                    "wheels": {
                        "tyres": "<180"
                    },
                    "year": 1994,
                    "color": ""
                },
                "rounds": [
                    "01:32,14",
                    "01:31,34",
                    "01:42,56"
                ],
                "bestlap": "01:31,34",
                "laps": [
                    [
                        "01:32,14",
                        "01:32,93",
                        "01:37,74",
                        "01:49,54"
                    ],
                    [
                        "01:32,90",
                        "01:32,38",
                        "01:31,34",
                        "01:31,60"
                    ],
                    [
                        "01:43,66",
                        "01:42,91",
                        "01:42,56",
                        "01:42,96"
                    ]
                ],
                "number": 72,
                "points": 10,
                "place": 1
            },
            {
                "driver": "Kristian",
                "car": {
                    "number": [
                        29
                    ],
                    "mark": "Renault",
                    "model": "Clio",
                    "type": "Stock",
                    "engine": {
                        "volume": 2000,
                        "turbo": false
                    },
                    "wheels": {
                        "tyres": "<180"
                    },
                    "year": 2000,
                    "color": "limegreen"
                },
                "rounds": [
                    "01:32,69",
                    "01:33,46",
                    "01:33,92"
                ],
                "bestlap": "01:32,69",
                "laps": [
                    [
                        "01:34,38",
                        "01:32,69",
                        "01:47,61",
                        "01:33,17"
                    ],
                    [
                        "01:38,07",
                        "01:34,55",
                        "01:34,01",
                        "01:33,46"
                    ],
                    [
                        "01:45,27",
                        "01:35,56",
                        "01:34,41",
                        "01:33,92"
                    ]
                ],
                "number": 29,
                "points": 8,
                "place": 2
            },
            {
                "driver": "Erik Kaju",
                "car": {
                    "number": [
                        69
                    ],
                    "mark": "Volkswagen",
                    "model": "Golf GTI",
                    "type": "Track",
                    "engine": {
                        "volume": 1984,
                        "turbo": false
                    },
                    "wheels": {
                        "tyres": "≥180"
                    },
                    "year": 1987,
                    "color": ""
                },
                "rounds": [
                    "01:35,08",
                    "01:34,09",
                    "01:34,22"
                ],
                "bestlap": "01:34,09",
                "laps": [
                    [
                        "01:35,08",
                        "01:37,52"
                    ],
                    [
                        "01:34,92",
                        "01:34,09",
                        "01:34,52",
                        "01:39,22"
                    ],
                    [
                        "01:35,55",
                        "01:35,11",
                        "01:34,22",
                        "02:13,57"
                    ]
                ],
                "number": 69,
                "points": 6,
                "place": 3
            },
            {
                "driver": "Tanel Purv",
                "car": {
                    "number": [
                        71
                    ],
                    "mark": "BMW",
                    "model": "E36",
                    "type": "Track",
                    "engine": {
                        "volume": 1998,
                        "turbo": false
                    },
                    "wheels": {
                        "tyres": "<180"
                    },
                    "year": 1994,
                    "color": ""
                },
                "rounds": [
                    "01:39,98",
                    "01:39,82",
                    "01:39,41"
                ],
                "bestlap": "01:39,41",
                "laps": [
                    [
                        "01:41,60",
                        "01:40,90",
                        "01:40,35",
                        "01:39,98"
                    ],
                    [
                        "01:40,96",
                        "01:41,26",
                        "01:40,17",
                        "01:39,82"
                    ],
                    [
                        "01:41,02",
                        "01:40,00",
                        "01:39,41"
                    ]
                ],
                "number": 71,
                "points": 5,
                "place": 4
            },
            {
                "driver": "Martin Adamson",
                "car": {
                    "number": [
                        78
                    ],
                    "mark": "Opel",
                    "model": "Astra F",
                    "type": "Track",
                    "engine": {
                        "volume": 2000,
                        "turbo": false
                    },
                    "wheels": {
                        "tyres": "<180"
                    },
                    "year": 1997,
                    "color": ""
                },
                "rounds": [
                    "01:40,03",
                    "01:39,22"
                ],
                "bestlap": "01:39,22",
                "laps": [
                    [
                        "01:41,16",
                        "01:41,33",
                        "01:41,25",
                        "01:40,03"
                    ],
                    [
                        "01:41,01",
                        "01:39,78",
                        "01:41,27",
                        "01:39,22"
                    ]
                ],
                "number": 78,
                "points": 4,
                "place": 5
            },
            {
                "driver": "Karl Leinus",
                "car": {
                    "number": [
                        28
                    ],
                    "mark": "Opel",
                    "model": "Astra F",
                    "type": "Track",
                    "engine": {
                        "volume": 2000,
                        "turbo": false
                    },
                    "wheels": {
                        "tyres": "<180"
                    },
                    "year": 1997,
                    "color": ""
                },
                "rounds": [
                    "01:51,48",
                    "01:49,27"
                ],
                "bestlap": "01:49,27",
                "laps": [
                    [
                        "01:52,54",
                        "01:52,68",
                        "01:52,51",
                        "01:51,48"
                    ],
                    [
                        "01:50,75",
                        "01:49,57",
                        "01:49,78",
                        "01:49,27"
                    ]
                ],
                "number": 28,
                "points": 3,
                "place": 6
            },
            {
                "driver": "Alar Hakmann",
                "car": {
                    "number": [
                        70
                    ],
                    "mark": "BMW",
                    "model": "E36",
                    "type": "Track",
                    "engine": {
                        "volume": 200,
                        "turbo": false
                    },
                    "wheels": {
                        "tyres": "<180"
                    },
                    "year": 1992,
                    "color": ""
                },
                "rounds": [
                    "01:43,09"
                ],
                "bestlap": "",
                "laps": [
                    [
                        "01:43,14",
                        "01:43,09"
                    ]
                ],
                "number": 70,
                "points": 2,
                "place": 7
            }
        ],
        "Unlim 2000+": [
            {
                "driver": "Lauri Sarapuu",
                "car": {
                    "number": [
                        60
                    ],
                    "mark": "Mazda",
                    "model": "MX-5",
                    "type": "Stock",
                    "engine": {
                        "volume": 1800,
                        "turbo": true
                    },
                    "wheels": {
                        "tyres": "<180"
                    },
                    "year": 1994,
                    "color": ""
                },
                "rounds": [
                    "01:28,94",
                    "01:27,53",
                    "01:27,24"
                ],
                "bestlap": "01:27,24",
                "laps": [
                    [
                        "01:29,42",
                        "01:28,94",
                        "01:30,95",
                        "01:38,28"
                    ],
                    [
                        "01:30,66",
                        "01:29,71",
                        "01:27,53",
                        "01:46,38"
                    ],
                    [
                        "01:29,48",
                        "01:27,65",
                        "01:27,24",
                        "01:35,56"
                    ]
                ],
                "number": 60,
                "points": 10,
                "place": 1
            },
            {
                "driver": "Alex Raadik ",
                "car": {
                    "number": [
                        75
                    ],
                    "mark": "Lexus",
                    "model": "Isf",
                    "type": "Stock",
                    "engine": {
                        "volume": 5000,
                        "turbo": true
                    },
                    "wheels": {
                        "tyres": "<180"
                    },
                    "year": 2012,
                    "color": ""
                },
                "rounds": [
                    null,
                    "01:28,33",
                    "01:29,01"
                ],
                "bestlap": "01:28,33",
                "laps": [
                    [],
                    [
                        "01:30,28",
                        "01:29,01",
                        "01:28,33",
                        "01:36,65"
                    ],
                    [
                        "01:29,01",
                        "01:29,31",
                        "01:29,06",
                        "01:29,41"
                    ]
                ],
                "number": 75,
                "points": 8,
                "place": 2
            },
            {
                "driver": "CHERN",
                "car": {
                    "number": [
                        51
                    ],
                    "mark": "BMW",
                    "model": "328i",
                    "type": "Track",
                    "engine": {
                        "volume": 2800,
                        "turbo": false
                    },
                    "wheels": {
                        "tyres": "<180"
                    },
                    "year": 1995,
                    "color": "snow"
                },
                "rounds": [
                    "01:28,90",
                    "01:28,72",
                    "01:29,98"
                ],
                "bestlap": "01:28,72",
                "laps": [
                    [
                        "01:30,30",
                        "01:29,26",
                        "01:29,04",
                        "01:28,90"
                    ],
                    [
                        "01:31,35",
                        "01:29,53",
                        "01:28,72",
                        "01:29,19"
                    ],
                    [
                        "01:33,02",
                        "01:31,63",
                        "01:30,55",
                        "01:29,98"
                    ]
                ],
                "number": 51,
                "points": 6,
                "place": 3
            },
            {
                "driver": "Veiko Veldemann",
                "car": {
                    "number": [
                        7
                    ],
                    "mark": "Honda",
                    "model": "INTEGRA",
                    "type": "Track",
                    "engine": {
                        "volume": 1595,
                        "turbo": true
                    },
                    "wheels": {
                        "tyres": "<180"
                    },
                    "year": 2000,
                    "color": ""
                },
                "rounds": [
                    "01:32,85",
                    "01:32,59"
                ],
                "bestlap": "01:32,59",
                "laps": [
                    [
                        "01:33,16",
                        "01:33,11",
                        "01:37,51",
                        "01:32,85"
                    ],
                    [
                        "01:32,85",
                        "01:32,59",
                        "01:51,12",
                        "01:48,54"
                    ]
                ],
                "number": 7,
                "points": 5,
                "place": 4
            },
            {
                "driver": "Tõnuri Nurmeots",
                "car": {
                    "number": [
                        76
                    ],
                    "mark": "Honda",
                    "model": "Civic",
                    "type": "Track",
                    "engine": {
                        "volume": 1500,
                        "turbo": false
                    },
                    "wheels": {
                        "tyres": "<180"
                    },
                    "year": 1994,
                    "color": ""
                },
                "rounds": [
                    "01:40,96",
                    "01:40,28"
                ],
                "bestlap": "01:40,28",
                "laps": [
                    [
                        "01:43,86",
                        "01:43,71",
                        "01:42,41",
                        "01:40,96"
                    ],
                    [
                        "01:42,25",
                        "01:40,76",
                        "01:40,28",
                        "01:40,31"
                    ]
                ],
                "number": 76,
                "points": 4,
                "place": 5
            }
        ]
    },
    "points": [
        10,
        8,
        6,
        5,
        4,
        3,
        2,
        1
    ]
}
