{
    "track": [
        "14",
        "15",
        "16"
    ],
    "ready": [
        "17",
        "19",
        "21"
    ],
    "q": [
        "22",
        "23",
        "31",
        "32",
        "35",
        "38",
        "39",
        "40",
        "45",
        "46",
        "48",
        "49",
        "50",
        "53",
        "60",
        "62",
        "63",
        "64",
        "65",
        "47",
        "51",
        "11",
        "1",
        "2"
    ]
}