{
    "track": [
        "14",
        "15",
        "16"
    ],
    "ready": [
        "17",
        "19",
        "21"
    ],
    "q": [
        "22",
        "23",
        "31",
        "32",
        "35",
        "38",
        "39",
        "40",
        "45",
        "46",
        "48",
        "49",
        "50",
        "53",
        "60",
        "62",
        "63",
        "64",
        "65",
        "47",
        "51",
        "11",
        "1",
        "2",
        "101",
        "102",
        "103",
        "104",
        "105",
        "106",
        "107",
        "108",
        "109",
        "110",
        "111",
        "112",
        "113",
        "201",
        "202",
        "203",
        "204",
        "205",
        "301",
        "302",
        "303",
        "304",
        "305",
        "306",
        "307",
        "308",
        "309",
        "310",
        "311",
        "401",
        "402",
        "403",
        "404",
        "405",
        "406",
        "407",
        "408",
        "409",
        "410",
        "411",
        "501",
        "502",
        "503",
        "504",
        "505",
        "506",
        "507",
        "508",
        "509",
        "510"
    ]
}