{
    "Street A": [
        [
            104,
            10
        ],
        [
            107,
            8
        ],
        [
            105,
            6
        ],
        [
            103,
            5
        ],
        [
            109,
            4
        ],
        [
            110,
            3
        ],
        [
            108,
            2
        ],
        [
            113,
            1
        ],
        [
            112,
            1
        ],
        [
            111,
            1
        ]
    ],
    "Street B": [
        [
            202,
            10
        ],
        [
            204,
            8
        ],
        [
            201,
            6
        ],
        [
            203,
            5
        ]
    ],
    "Street C": [
        [
            301,
            10
        ],
        [
            303,
            8
        ],
        [
            302,
            6
        ],
        [
            305,
            5
        ],
        [
            306,
            4
        ],
        [
            309,
            3
        ],
        [
            308,
            2
        ],
        [
            307,
            1
        ],
        [
            304,
            1
        ]
    ],
    "Unlim 2000": [
        [
            401,
            10
        ],
        [
            402,
            8
        ],
        [
            403,
            6
        ],
        [
            407,
            5
        ],
        [
            405,
            4
        ],
        [
            404,
            3
        ],
        [
            408,
            2
        ],
        [
            406,
            1
        ]
    ],
    "Unlim 2000+": [
        [
            505,
            10
        ],
        [
            503,
            8
        ],
        [
            501,
            6
        ],
        [
            504,
            5
        ],
        [
            502,
            4
        ],
        [
            506,
            3
        ],
        [
            507,
            2
        ],
        [
            508,
            1
        ]
    ]
}