{
	"race": "Best Lap",
	"place": "Audru",
	"track": "Porsche Ring",
	"date": "2022-07-09",
	"rules": {
		"rounds": 3,
		"laps": 5,
		"wins": "bestlap"
	},
	"classes": ["Street A", "Street B", "Street C", "Unlim 2000", "Unlim 2000+"],
	"points": [10, 8, 6, 5, 4, 3, 2, 1]
}