{
    "100": {
        "paid": "1",
        "checked": "1",
        "active": "1",
        "grouped": ""
    },
    "102": {
        "paid": "1",
        "checked": "1",
        "active": "1",
        "grouped": ""
    },
    "104": {
        "paid": "1",
        "checked": "1",
        "active": "1",
        "grouped": ""
    },
    "106": {
        "paid": "1",
        "checked": "1",
        "active": "1",
        "grouped": ""
    },
    "111": {
        "paid": "1",
        "checked": "1",
        "active": "1",
        "grouped": ""
    },
    "113": {
        "paid": "1",
        "checked": "1",
        "active": "1",
        "grouped": ""
    },
    "200": {
        "paid": "1",
        "checked": "1",
        "active": "1",
        "grouped": ""
    },
    "204": {
        "paid": "1",
        "checked": "1",
        "active": "1",
        "grouped": ""
    },
    "205": {
        "paid": "1",
        "checked": "1",
        "active": "1",
        "grouped": ""
    },
    "206": {
        "paid": "1",
        "checked": "1",
        "active": "1",
        "grouped": ""
    },
    "222": {
        "paid": "1",
        "checked": "1",
        "active": "1",
        "grouped": ""
    },
    "301": {
        "paid": "1",
        "checked": "1",
        "active": "1",
        "grouped": ""
    },
    "302": {
        "paid": "1",
        "checked": "1",
        "active": "1",
        "grouped": ""
    },
    "303": {
        "paid": "1",
        "checked": "1",
        "active": "1",
        "grouped": ""
    },
    "306": {
        "paid": "1",
        "checked": "1",
        "active": "1",
        "grouped": ""
    },
    "308": {
        "paid": "1",
        "checked": "1",
        "active": "1",
        "grouped": ""
    },
    "369": {
        "paid": "1",
        "checked": "1",
        "active": "1",
        "grouped": ""
    },
    "396": {
        "paid": "1",
        "checked": "1",
        "active": "1",
        "grouped": ""
    },
    "401": {
        "paid": "1",
        "checked": "1",
        "active": "1",
        "grouped": ""
    },
    "403": {
        "paid": "1",
        "checked": "1",
        "active": "1",
        "grouped": ""
    },
    "405": {
        "paid": "1",
        "checked": "1",
        "active": "1",
        "grouped": ""
    },
    "408": {
        "paid": "1",
        "checked": "1",
        "active": "1",
        "grouped": ""
    },
    "409": {
        "paid": "1",
        "checked": "1",
        "active": "1",
        "grouped": ""
    },
    "410": {
        "paid": "1",
        "checked": "1",
        "active": "1",
        "grouped": ""
    },
    "501": {
        "paid": "1",
        "checked": "1",
        "active": "1",
        "grouped": ""
    },
    "502": {
        "paid": "1",
        "checked": "1",
        "active": "1",
        "grouped": ""
    },
    "504": {
        "paid": "1",
        "checked": "1",
        "active": "1",
        "grouped": ""
    },
    "505": {
        "paid": "1",
        "checked": "1",
        "active": "1",
        "grouped": ""
    },
    "506": {
        "paid": "1",
        "checked": "1",
        "active": "1",
        "grouped": ""
    },
    "507": {
        "paid": "1",
        "checked": "1",
        "active": "1",
        "grouped": ""
    },
    "509": {
        "paid": "1",
        "checked": "1",
        "active": "1",
        "grouped": ""
    },
    "511": {
        "paid": "1",
        "checked": "1",
        "active": "1",
        "grouped": ""
    },
    "512": {
        "paid": "1",
        "checked": "1",
        "active": "1",
        "grouped": ""
    },
    "513": {
        "paid": "1",
        "checked": "1",
        "active": "1",
        "grouped": ""
    },
    "514": {
        "paid": "1",
        "checked": "1",
        "active": "1",
        "grouped": ""
    },
    "515": {
        "paid": "1",
        "checked": "1",
        "active": "1",
        "grouped": ""
    },
    "555": {
        "paid": "1",
        "checked": "1",
        "active": "1",
        "grouped": ""
    }
}